Name,age,phone_number,company,building_code,address
Edmund,73,747.246.5889,Connelly Group,080,Lakinburgh
Arthur,64,(559) 385-1580,Koss LLC,163,Magdalenville
Garrison,48,657.944.9264,Cassin Cassin and Cassin,52453,Loraineborough
Lorenza,59,829.042.2613,Schaden LLC,23904,Klockoborough
Cordell,78,435.016.2765,Roob LLC,8057,Columbusberg
Arno,23,191.020.3951,Beier Inc,02700,Wardhaven
Elvis,64,056.708.3050,Raynor-Raynor,2558,Wolffton
Ezequiel,23,1-541-391-3492,Miller LLC,460,Paigeberg
Bobbie,66,487-943-2503,Bechtelar Inc,401,Port Darrell
Hugh,49,(881) 886-8893,Smitham Smitham and Smitham,1235,West Addisonfort
Anabelle,19,(117) 957-9641,Ziemann Group,6590,Marksview
Wilfred,48,1-218-624-8271,Cremin-Cremin,71882,Ocieland
Josianne,38,488-281-5526,Kshlerin Kshlerin and Kshlerin,3773,Bednarville
Zackery,62,1-196-332-8710,Conroy LLC,35219,Grantfort
Aniya,33,094-012-6979,Schuppe-Schuppe,5860,North Ian
Alyce,61,972.259.3252,Huels-Huels,50146,New Nico
Monserrat,40,1-356-576-1012,Rowe Group,4363,South Rick
Kelley,53,623.289.3926,Effertz Inc,41640,Loratown
Zachary,46,(866) 043-0200,Lang-Lang,5237,Raufurt
Hoyt,39,(837) 275-6690,Green Green and Green,76294,Sawaynshire
Aracely,62,622-941-0006,Mraz LLC,4161,Port Justice
Emile,67,1-861-574-5618,Kemmer-Kemmer,13554,Medhurstport
Herta,78,318-039-1751,Harvey Harvey and Harvey,394,Bernierport
Alf,44,1-156-921-4430,Buckridge-Buckridge,6791,North Rico
Tobin,59,686.882.5169,Osinski Osinski and Osinski,951,Port Hildegardview
Korey,50,1-982-157-1981,Dietrich Dietrich and Dietrich,32983,Port Cooper
Nick,67,(589) 220-9396,Murray Murray and Murray,0596,Salmaland
Clint,71,844.317.2010,Green-Green,399,Lake Walton
Rose,47,605.602.3730,Bradtke LLC,06825,New Sven
Janelle,64,525-874-6205,Blanda Blanda and Blanda,54884,Baileyhaven
Adriana,33,1-900-145-6588,Streich Streich and Streich,8901,West Audie
Doug,30,727.439.6412,Gleichner and Sons,82346,Darbyland
Kay,21,652-847-0024,Marvin-Marvin,47119,South Geo
Stephon,44,(615) 279-7496,Satterfield-Satterfield,0413,McGlynnport
Ervin,63,(830) 268-2288,Lehner Inc,2215,Langmouth
Lew,25,196-760-2407,Monahan Monahan and Monahan,32511,West Ellis
William,23,398.796.5115,Cremin-Cremin,094,New Dejuan
Devyn,35,(202) 426-3374,Braun LLC,77077,Williammouth
Cordell,30,(925) 627-3958,Thompson-Thompson,2296,Leuschkestad
Bradford,18,595.413.7891,Heaney-Heaney,0782,Eloyburgh
Darron,27,(234) 478-5039,Borer Borer and Borer,40158,Weberburgh
Russell,54,927.851.7997,Turner Turner and Turner,288,Parisianmouth
Garrett,22,580.294.7127,Luettgen Inc,65720,Estrellafort
Fiona,74,(082) 754-2420,Crooks Group,83714,Jedborough
Aurelie,36,1-839-289-4665,Kris LLC,83503,Port Budmouth
Casimir,38,703-894-9457,Kassulke Kassulke and Kassulke,5011,Treutelburgh
Gaetano,74,1-376-528-9590,Cole LLC,10133,Harbermouth
Isaias,28,514.388.3749,Paucek Paucek and Paucek,468,Zboncakbury
Clark,55,1-207-431-7943,O'Hara-O'Hara,2431,Kirlintown
Aurelio,25,1-493-581-1078,Schuppe Inc,768,Erikatown
